--------------------------begenning of program--------------------------
Input Parameters: 
NumProc: 6
Threshold: 0.41
Column: 7
Radius: 150
File: /data/scottgs/springfield_road_scan.csv
Lines in File : 234900
Records Loaded : 117646
Time to Load File : 0.572749 s 
Weights size: 117646 dataVectorSize: 117646
WorkerNodeBlock: 19607 Remainder: 4
Constructing HwThreeThreader
Copied data correctly
Finished Constructing HwThreeThreader
Entered functor for thread (Entered functor for thread (7ffff6172700)
Worker num: 0
7ffff5971700)Entered functor for thread (
About to block and wait on all my threads.
Entered functor for thread (7ffff496f700)
Worker num: 1
7ffff5170700)
Entered functor for thread (7ffff396d700)
Worker num: Worker num: 4Worker num: 3
Entered functor for thread (2

7ffff416e700)
Worker num: 5
writing to memory: 98035
writing to memory: 78428
writing to memory: 0
writing to memory: 58821
writing to memory: 19607
writing to memory: 39214
Total Distance Moved during Iteration : 6.18258e+06 m
process did not converge yet
In the parent (if-else): 
Compute Time for Weighted Mean Iteration 1 is: 252.274 s 
Entered functor for thread (7ffff396d700)
Worker num: 0
Entered functor for thread (7ffff496f700)
Worker num: 1
Entered functor for thread (7ffff416e700)
Worker num: 2
Entered functor for thread (7ffff5170700)
Worker num: 3
About to block and wait on all my threads.
Entered functor for thread (7ffff5971700)
Worker num: 4
Entered functor for thread (7ffff6172700)
Worker num: 5
writing to memory: 0
writing to memory: 78428
writing to memory: 58821
writing to memory: 98035
writing to memory: 19607
writing to memory: 39214
Total Distance Moved during Iteration : 5.40809e+06 m
process did not converge yet
In the parent (if-else): 
Compute Time for Weighted Mean Iteration 2 is: 253.604 s 
Entered functor for thread (7ffff5971700)
Worker num: 0
Entered functor for thread (7ffff6172700)
Entered functor for thread (Entered functor for thread (7ffff496f700)
7ffff5170700Worker num: Entered functor for thread (27ffff416e700)
Entered functor for thread (7ffff396d700)
About to block and wait on all my threads.Worker num: 3
)
Worker num: 4

Worker num: 1
Worker num: 5

writing to memory: 0
writing to memory: 98035
writing to memory: 19607
writing to memory: 58821
writing to memory: 78428
writing to memory: 39214
Total Distance Moved during Iteration : 1.92968e+06 m
process did not converge yet
In the parent (if-else): 
Compute Time for Weighted Mean Iteration 3 is: 253.521 s 
Entered functor for thread (7ffff396d700)
Worker num: 0
Entered functor for thread (7ffff416e700)
Worker num: 1
Entered functor for thread (7ffff496f700)
Worker num: 2
Entered functor for thread (7ffff6172700)
Entered functor for thread (7ffff5170700)
Worker num: 3About to block and wait on all my threads.

Worker num: 4
Entered functor for thread (7ffff5971700)
Worker num: 5
writing to memory: 58821
writing to memory: 39214
writing to memory: 78428
writing to memory: 0
writing to memory: 98035
writing to memory: 19607
Total Distance Moved during Iteration : 296397 m
process did not converge yet
In the parent (if-else): 
Compute Time for Weighted Mean Iteration 4 is: 247.586 s 
Entered functor for thread (7ffff5170700)
Worker num: 0
Entered functor for thread (Entered functor for thread (7ffff5971700)140737296922368
Entered functor for thread (7ffff6172700)
Worker num: 1
)About to block and wait on all my threads.

Worker num: 3
Worker num: 2
Entered functor for thread (7ffff396d700)
Worker num: 4
Entered functor for thread (7ffff416e700)
Worker num: 5
writing to memory: 0
writing to memory: 17ef3
writing to memory: 1325c
writing to memory: 4c97
writing to memory: 992e
writing to memory: e5c5
Total Distance Moved during Iteration : 99435.4 m
process did not converge yet
In the parent (if-else): 
Compute Time for Weighted Mean Iteration 5 is: 246.831 s 
Entered functor for thread (7ffff396d700)
Worker num: 0
Entered functor for thread (7ffff416e700)
Entered functor for thread (7ffff496f700)Worker num: 
Entered functor for thread (7ffff6172700)
Worker num: 2
Worker num: 3
1
About to block and wait on all my threads.
Entered functor for thread (7ffff5971700)
Worker num: 4
Entered functor for thread (7ffff5170700)
Worker num: 5
writing to memory: 992e
writing to memory: 17ef3
writing to memory: 4c97
writing to memory: 0
writing to memory: 1325c
writing to memory: e5c5
Total Distance Moved during Iteration : 32585.9 m
process did not converge yet
In the parent (if-else): 
Compute Time for Weighted Mean Iteration 6 is: 246.585 s 
Entered functor for thread (7ffff5971700)
Worker num: 0
Entered functor for thread (7ffff6172700)
Worker num: 1
Entered functor for thread (7ffff496f700)
Worker num: 2
Entered functor for thread (About to block and wait on all my threads.
Entered functor for thread (7ffff396d700)
Worker num: 3
7ffff5170700)
Worker num: 4
Entered functor for thread (7ffff416e700)
Worker num: 5
writing to memory: 992e
writing to memory: 0
writing to memory: 1325c
writing to memory: 17ef3
writing to memory: 4c97
writing to memory: e5c5
Total Distance Moved during Iteration : 9358.52 m
process did not converge yet
In the parent (if-else): 
Compute Time for Weighted Mean Iteration 7 is: 246.331 s 
Entered functor for thread (7ffff396d700)
Worker num: 0
Entered functor for thread (7ffff416e700)
Worker num: 1
Entered functor for thread (7ffff496f700)
Worker num: 2
Entered functor for thread (7ffff5170700)
Worker num: 3
About to block and wait on all my threads.
Entered functor for thread (7ffff5971700)
Worker num: 4
Entered functor for thread (7ffff6172700)
Worker num: 5
writing to memory: 992e
writing to memory: 0
writing to memory: e5c5
writing to memory: 17ef3
writing to memory: 4c97
writing to memory: 1325c
Total Distance Moved during Iteration : 2.74522e-06 m
In the parent (if-else): 
Compute Time for Weighted Mean Iteration 8 is: 246.423 s 
Total Number of Iterations: 8
q (size): 1cb8e
Compute Time for Colocated Points is: 165.143 s 
Colocated points: 
Total Distance Moved during Algorithm : 1.39581e+07 m
Total Clusters: 74f1
Done processing

Program runtime is: 2158.88 s 
--------------------------end of program--------------------------
Destructing MyFibThreader
Delete oldPoints
Delete indexLock
Delete mutex
