--------------------------begenning of program--------------------------
Input Parameters: 
NumProc: 8
Threshold: 0.73
Column: 7
Radius: 150
File: /data/scottgs/springfield_road_scan.csv
Lines in File : 234900
Records Loaded : 71446
Time to Load File : 0.514656 s 
Weights size: 71446 dataVectorSize: 71446
WorkerNodeBlock: 8930 Remainder: 6
Constructing HwThreeThreader
Copied data correctly
Finished Constructing HwThreeThreader
Entered functor for thread (Entered functor for thread (Entered functor for thread (7ffff62da700)7ffff52d8700
7ffff5ad9700)
Worker num: 0
)
Worker num: 1
Entered functor for thread (7ffff4ad7700)
Worker num: 2
Entered functor for thread (7ffff3ad5700)
Worker num: 3
Entered functor for thread (7ffff42d6700)
Worker num: 4
About to block and wait on all my threads.
Entered functor for thread (7ffff32d4700)
Worker num: 5
Entered functor for thread (7ffff2ad3700)
Worker num: 6
Worker num: 7
writing to memory: 0
writing to memory: 22e2
writing to memory: 68a6
writing to memory: 45c4
writing to memory: d14c
writing to memory: ae6a
writing to memory: f42e
writing to memory: 8b88
Total Distance Moved during Iteration : 3.62252e+06 m
process did not converge yet
In the parent (if-else): 
Compute Time for Weighted Mean Iteration 1 is: 68.5025 s 
Entered functor for thread (7ffff42d6700)
Entered functor for thread (Entered functor for thread (7ffff32d4700)
Worker num: Worker num: 01
Entered functor for thread (7ffff3ad5700)

Entered functor for thread (Worker num: 2
7ffff2ad3700)
Worker num: 3
Entered functor for thread (7ffff5ad9700)
Worker num: 4
About to block and wait on all my threads.
Entered functor for thread (7ffff52d8700)
Worker num: 5
7ffff62da700)
Worker num: 6
Entered functor for thread (7ffff4ad7700)
Worker num: 7
writing to memory: 8b88
writing to memory: f42e
writing to memory: d14c
writing to memory: ae6a
writing to memory: 68a6
writing to memory: 45c4
writing to memory: 22e2
writing to memory: 0
Total Distance Moved during Iteration : 2.69401e+06 m
process did not converge yet
In the parent (if-else): 
Compute Time for Weighted Mean Iteration 2 is: 68.4428 s 
Entered functor for thread (Entered functor for thread (Entered functor for thread (7ffff4ad7700)
Entered functor for thread (Worker num: 7ffff5ad9700)Entered functor for thread (7ffff3ad5700)

Worker num: 01

7ffff42d67007ffff52d8700)
Entered functor for thread (7ffff32d4700)
Worker num: 2
Entered functor for thread (About to block and wait on all my threads.
7ffff62da700)
Worker num: 4
Worker num: 5
Entered functor for thread (7ffff2ad3700)
Worker num: 3
Worker num: 6
)
Worker num: 7
writing to memory: f42e
writing to memory: 8b88
writing to memory: 68a6
writing to memory: d14c
writing to memory: ae6a
writing to memory: 0
writing to memory: 22e2
writing to memory: 45c4
Total Distance Moved during Iteration : 1.01471e+06 m
process did not converge yet
In the parent (if-else): 
Compute Time for Weighted Mean Iteration 3 is: 68.2895 s 
Entered functor for thread (7ffff2ad3700)
Worker num: 0
Entered functor for thread (Entered functor for thread (7ffff3ad5700)7ffff42d6700)

Entered functor for thread (7ffff32d4700)
Worker num: 1
Entered functor for thread (7ffff62da700)
Entered functor for thread (7ffff52d8700)
Worker num: 3
Worker num: 2
About to block and wait on all my threads.
Worker num: Entered functor for thread (4
7ffff5ad9700)
Worker num: 5
Entered functor for thread (7ffff4ad7700)
Worker num: 6
Worker num: 7
writing to memory: d14c
writing to memory: ae6a
writing to memory: 8b88
writing to memory: f42e
writing to memory: 0
writing to memory: 22e2
writing to memory: 45c4
writing to memory: 68a6
Total Distance Moved during Iteration : 228503 m
process did not converge yet
In the parent (if-else): 
Compute Time for Weighted Mean Iteration 4 is: 67.142 s 
Entered functor for thread (Entered functor for thread (7ffff4ad77007ffff42d6700)
Entered functor for thread (7ffff5ad9700)
Worker num: 0
Entered functor for thread (7ffff3ad5700)Worker num: 
Entered functor for thread (About to block and wait on all my threads.
Worker num: 2
Entered functor for thread (7ffff62da700)
)
Entered functor for thread (7ffff2ad3700)
Worker num: 14
Entered functor for thread (7ffff32d4700)
Worker num: Worker num: 5
Worker num: 3
7ffff52d8700)

Worker num: 7
6
writing to memory: 68a6
writing to memory: d14c
writing to memory: 22e2
writing to memory: f42e
writing to memory: 8b88
writing to memory: 0
writing to memory: 45c4
writing to memory: ae6a
Total Distance Moved during Iteration : 53819.1 m
process did not converge yet
In the parent (if-else): 
Compute Time for Weighted Mean Iteration 5 is: 66.6971 s 
Entered functor for thread (7ffff2ad3700)
Worker num: 0
Entered functor for thread (7ffff5ad9700)
Worker num: 1
Entered functor for thread (7ffff42d6700)
Entered functor for thread (Worker num: 2
7ffff3ad5700)
Worker num: 3
Entered functor for thread (About to block and wait on all my threads.
Entered functor for thread (7ffff62da700)
Worker num: 4
Entered functor for thread (7ffff52d8700)
Worker num: 5
7ffff32d4700)
Worker num: 6
Entered functor for thread (7ffff4ad7700)
Worker num: 7
writing to memory: ae6a
writing to memory: 8b88
writing to memory: d14c
writing to memory: f42e
writing to memory: 45c4
writing to memory: 68a6
writing to memory: 0
writing to memory: 22e2
Total Distance Moved during Iteration : 11170 m
process did not converge yet
In the parent (if-else): 
Compute Time for Weighted Mean Iteration 6 is: 66.7866 s 
Entered functor for thread (7ffff4ad7700)
Worker num: 0
Entered functor for thread (7ffff5ad9700)
Worker num: 1
Entered functor for thread (7ffff42d6700)
Worker num: 2
Entered functor for thread (7ffff32d4700)
Worker num: 3
About to block and wait on all my threads.
Entered functor for thread (7ffff2ad3700)
Worker num: 4
Entered functor for thread (7ffff52d8700)
Worker num: 5
Entered functor for thread (7ffff62da700)
Entered functor for thread (Worker num: 6
7ffff3ad5700)
Worker num: 7
writing to memory: ae6a
writing to memory: d14c
writing to memory: f42e
writing to memory: 8b88
writing to memory: 22e2
writing to memory: 45c4
writing to memory: 0
writing to memory: 68a6
Total Distance Moved during Iteration : 2473.81 m
process did not converge yet
In the parent (if-else): 
Compute Time for Weighted Mean Iteration 7 is: 66.8258 s 
Entered functor for thread (7ffff2ad3700)
Worker num: 0
Entered functor for thread (7ffff3ad5700)
Worker num: 1
About to block and wait on all my threads.
Entered functor for thread (7ffff4ad7700)
Worker num: 2
Entered functor for thread (7ffff52d8700)
Worker num: 3
Entered functor for thread (7ffff5ad9700)
Worker num: 4
Entered functor for thread (7ffff32d4700)
Worker num: 5
Entered functor for thread (7ffff62da700)
Worker num: 6
Entered functor for thread (7ffff42d6700)
Worker num: 7
writing to memory: 8b88
writing to memory: f42e
writing to memory: ae6a
writing to memory: d14c
writing to memory: 0
writing to memory: 45c4
writing to memory: 68a6
writing to memory: 22e2
Total Distance Moved during Iteration : 8.23388e-07 m
In the parent (if-else): 
Compute Time for Weighted Mean Iteration 8 is: 68.2129 s 
Total Number of Iterations: 8
q (size): 11716
Compute Time for Colocated Points is: 76.4483 s 
Colocated points: 
Total Distance Moved during Algorithm : 7.6272e+06 m
Total Clusters: 5c8b
Done processing

Program runtime is: 617.865 s 
--------------------------end of program--------------------------
Destructing MyFibThreader
Delete oldPoints
Delete indexLock
Delete mutex
